{
    "component": "packs-components/Randomize",
    "states": [
      {
        "unanswered_message": "There is at least one unanswered question on this page. By clicking \">>\", you can continue the survey. However, if you are comfortable completing any of the remaining questions, we ask you to please do so because it would help us with our research.",
        "skipRatingText": "I feel uncomfortable answering this question"
      }
    ]
}