{
    "aspects": [
      {
        "code": "$pv_6_a_0_code",
        "md": "$pv_6_a_0_text",
        "mde": "$pv_6_a_0_expression"
      },
      {
        "code": "$pv_6_a_1_code",
        "md": "$pv_6_a_1_text",
        "mde": "$pv_6_a_1_expression"
      },
      {
        "code": "$pv_6_a_2_code",
        "md": "$pv_6_a_2_text",
        "mde": "$pv_6_a_2_expression"
      }
    ],
   "defaults": {
      "color": "$pv_6_color"
      },
    "id":"$pv_6_id",
    "bucket": "$pv_6_bucket",
    "personal":true,
    "component": "wiagl-components/Vignette",
    "instructions": "$pv_6_preamble_instructions",
    "reminder": "$reminder_text",
    "order":7,
    "skip": {
      "or": [
      {
        "!==" : ["$backend_pv_6_seen", true] 
      },
      {
        "==" : ["$backend_skipVignette", true] 
      }
    ] 
    },
    "skip2": {
      "===": [
        "$calibraionsAfterRatings",
        true
      ]
    },
    "workerId": "$workerId",
    "name": "bottomlessA2"
  }