{
  "aspect": {
    "code": 9,
    "color": "$color_9",
    "rating": "$rating_9",
    "text": "$text_9"
  },
  "bucket": "$bucket_9",
  "component": "wiagl-components/Rating",
  "skip": {
    "===": [
      "$short",
      "true"
    ]
  }
}