{
  "aspects": [
    {
      "code": 14,
      "color": "$color_14",
      "rating": "$rating_14",
      "text": "$text_14"
    },
    {
      "code": 12,
      "color": "$color_12",
      "rating": "$rating_12",
      "text": "$text_12"
    },
    {
      "code": 13,
      "color": "$color_13",
      "rating": "$rating_13",
      "text": "$text_13"
    }
  ],
  "bucket": "$bucket_12",
  "component": "wiagl-components/Tradeoff",
  "should_decrease": "$should_decrease",
  "triple_code": 4,
  "skip": {
    "or": [
      {
        "===" : ["$rating_12_skip", "$skipRatingText"] 
      },{
        "===" : ["$rating_13_skip", "$skipRatingText"] 
      },{
        "===" : ["$rating_14_skip", "$skipRatingText"] 
      }, {
        "===": ["$short", "true"]
      },
      {"===" : ["$blockNumber", "29"] 
      },
      {"===" : ["$blockNumber", 29] 
      }
    ] 
  }
}