{
  "aspect": {
    "code": 17,
    "color": "$color_17",
    "rating": "$rating_17",
    "text": "$text_17"
  },
  "bucket": "$bucket_15",
  "component": "wiagl-components/Rating",
  "skip": {
    "===": [
      "$short",
      "true"
    ]
  }
}