{
  "aspect": {
    "code": 18,
    "color": "$color_18",
    "rating": "$rating_18",
    "text": "$text_18"
  },
  "bucket": "$bucket_18",
  "component": "wiagl-components/Rating",
  "skip": {
    "===": [
      "$short",
      "true"
    ]
  }
}