{
  "aspects": [
    {
      "code": 24,
      "color": "$color_24",
      "rating": "$rating_24",
      "text": "$text_24"
    },
    {
      "code": 26,
      "color": "$color_26",
      "rating": "$rating_26",
      "text": "$text_26"
    },
    {
      "code": 25,
      "color": "$color_25",
      "rating": "$rating_25",
      "text": "$text_25"
    }
  ],
  "bucket": "$bucket_24",
  "component": "wiagl-components/Tradeoff",
  "should_decrease": "$should_decrease",
  "triple_code": 8,
  "skip": {
    "or": [
      {
        "===" : ["$rating_24_skip", "$skipRatingText"] 
      },{
        "===" : ["$rating_25_skip", "$skipRatingText"] 
      },{
        "===" : ["$rating_26_skip", "$skipRatingText"] 
      }, {
        "===": ["$short", "true"]
      },
      {"===" : ["$blockNumber", "29"] 
      },
      {"===" : ["$blockNumber", 29] 
      }
    ] 
  }
}