{
    "aspect": {
        "code": 47,
        "color": "$color_47",
        "rating": "$rating_47",
        "text": "$text_47"
    },
    "bucket": "$bucket_45",
    "component": "wiagl-components/Rating",
    "skip": {
        "or": [
            {
                "===": [
                    "$short",
                    "true"
                ]
            },
            {
                "and":[{"!==" : ["$blockNumber", 29] },{"!==" : ["$blockNumber", "29"] }]
            }
        ]
    }
}