{
    "component": "packs-components/Markdown",
    "source": "You have just completed questions where you rated aspects of **your life.** We also want to know how you rate other things.",
    "skip": {
        "!==": [
          "${show_insrtuctions}",
          "true"
        ] 
      },
    "skip2": {
      "===": [
        "$calibraionsAfterRatings",
        false
      ]
    }
}