{
    "aspects": [
      {
        "code": "$iv_3_a_0_code",
        "image": "$iv_3_a_0_image"
      },
      {
        "code": "$iv_3_a_1_code",
        "image": "$iv_3_a_1_image"
      },
      {
        "code": "$iv_3_a_2_code",
        "image": "$iv_3_a_2_image"
      }
    ],
    "defaults": {
      "color": "$iv_3_color",
      "md": "$iv_3_text"
    },
    "code": "$iv_3_a_0_code",
    "bucket": "$iv_3_bucket",
    "instructions": "$iv_3_preamble_instructions",
    "id":"$iv_3_id",
    "personal":false,
    "component": "wiagl-components/Vignette",
    "override_scale": {"max_point": "Highest level possible", "min_point": "Lowest level possible"},
    "order":4,
    "skip": {
      "or": [
      {
        "!==" : ["$backend_iv_3_seen", true] 
      },
      {
        "==" : ["$backend_skipVignette", true] 
      }
    ] 
    },
    "skip2": {
      "or": [
        {
          "===": [
            "$impersonal_before_personal",
            true
          ]
        },{
          "===": [
            "$calibraionsAfterRatings",
            false
          ]
        }
      ]
    },
    "workerId": "$workerId",
    "name": "bottomlessA2"
}