{
  "component": "packs-components/DisplayText",
  "source": "Unfortunately, our data-checking algorithm indicates that there is a problem with getting enough usable data from your responses.\n\n We will definitely pay you for this HIT. Please return to MTurk to submit the HIT. No survey code is needed and we will approve your submission as soon as we can.\n\n When you return to MTurk, please **do not accept** any more HITs. If you submit additional HITs, we won’t be able to accept them.\n\n We really appreciate all the work you have put in to help us learn about well-being! \n\n Please close this tab now. ",
  "workerId": "$workerId",
  "short": "$short",
  "skip": {
    "==": [
      "$qualityControlBottomlessA",
      1
    ]
  }
}